<?xml version="1.0" standalone="no"?>
<!DOCTYPE svg PUBLIC "-//W3C//DTD SVG 1.1//EN" "http://www.w3.org/Graphics/SVG/1.1/DTD/svg11.dtd" >
<svg xmlns="http://www.w3.org/2000/svg">
<metadata>Generated by IcoMoon</metadata>
<defs>
<font id="icomoon" horiz-adv-x="1024">
<font-face units-per-em="1024" ascent="960" descent="-64" />
<missing-glyph horiz-adv-x="1024" />
<glyph unicode="&#x20;" horiz-adv-x="512" d="" />
<glyph unicode="&#x1f31e;" glyph-name="sexo" horiz-adv-x="979" d="M934.262 913.006l-161.795-174.345c38.185-42.058 61.419-98.124 61.419-159.688 0-130.522-104.434-236.331-234.366-236.331-114.445 0-209.804 82.088-230.911 190.849 7.238 1.446 14.475 2.488 21.689 3.17 19.556-98.116 105.795-172.035 209.222-172.035 117.846 0 213.378 95.966 213.378 214.347s-95.533 214.347-213.378 214.347c-104.82 0-191.988-75.925-209.976-176.015-2.945 0.093-5.903 0.141-8.874 0.141-4.482 0-8.938-0.11-13.365-0.329 18.154 112.385 115.21 198.188 232.215 198.188 60.629 0 115.706-23.038 157.211-60.875l165.876 178.743-195.314-17.088-1.94 22.176 227.306 19.887 18.917-216.218-22.176-1.94-15.137 173.016zM932.483 933.342l-0.060 0.689-0.623-0.055 0.684-0.634zM95.597 41.080l145.413 150.58c-39.074 42.591-62.924 99.376-62.924 161.731 0 132.164 107.14 239.304 239.304 239.304s239.304-107.14 239.304-239.304c0-132.164-107.14-239.304-239.304-239.304-61.799 0-118.127 23.425-160.588 61.881l-145.332-150.496 63.483-62.414-15.607-15.874-63.341 62.274-69.296-71.758-16.013 15.464 69.434 71.901-71.587 70.381 15.607 15.874 71.445-70.242zM417.391 136.348c119.87 0 217.043 97.174 217.043 217.043s-97.174 217.043-217.043 217.043c-119.87 0-217.043-97.174-217.043-217.043s97.174-217.043 217.043-217.043z" />
</font></defs></svg>